{
    "id": "org.kde.massif-visualizer",
    "branch": "master",
    "runtime": "org.kde.Platform",
    "runtime-version": "5.14",
    "sdk": "org.kde.Sdk",
    "command": "massif-visualizer",
    "tags": ["nightly"],
    "desktop-file-name-suffix": " (Nightly)",
    "finish-args": ["--share=ipc", "--socket=x11", "--socket=wayland", "--filesystem=host" ],
    
    "modules": [
        {
            "config-opts": [ "-DENABLE_TESTING=OFF" ],
            "name": "kdiagram",
            "buildsystem": "cmake-ninja",
            "sources": [ { "type": "git", "url": "git://anongit.kde.org/kdiagram.git" } ]
        },
        {
            "name": "massif-visualizer",
            "buildsystem": "cmake-ninja",
            "sources": [ { "type": "git", "url": "git://anongit.kde.org/massif-visualizer.git" } ]
        }
    ]
}
