{
    "name": "poppler",
    "config-opts": [ "-DENABLE_TESTING=OFF", "-DENABLE_UNSTABLE_API_ABI_HEADERS=ON", "-DENABLE_CPP=OFF", "-DENABLE_GLIB=OFF", "-DENABLE_GOBJECT_INTROSPECTION=OFF", "-DENABLE_UTILS=OFF" ],
    "buildsystem": "cmake-ninja",
    "builddir": true,
    "sources": [ { "type": "git", "url": "git://anongit.freedesktop.org/poppler/poppler.git", "branch": "master" } ],
    "modules": [
        {
            "name": "openjpeg2",
            "buildsystem": "cmake-ninja",
            "builddir": true,
            "sources": [ { "type": "git", "url": "https://github.com/uclouvain/openjpeg.git", "branch": "v2.3.1" } ],
            "cleanup": [ "/bin", "/include", "/lib/openjpeg-*", "/lib/pkgconfig" ]
        }
    ],
    "cleanup": [ "/include", "/lib/pkgconfig" ]
}
